Stat 20 - Wrong By Design
…
Code
null <- ppk |>
  specify(response = support_before,
          success = "TRUE") |>
  hypothesize(null = "point", p = .5) |>
  generate(reps = 500, type = "draw") |>
  calculate(stat = "prop")
null

Response: support_before (factor)
Null Hypothesis: point
# A tibble: 500 × 2
   replicate  stat
       <int> <dbl>
 1         1 0.516
 2         2 0.495
 3         3 0.497
 4         4 0.517
 5         5 0.493
 6         6 0.508
 7         7 0.496
 8         8 0.502
 9         9 0.496
10        10 0.485
# ℹ 490 more rows
…
