Stat 20 - Bootstrapping
…
Generating one bootstrap sample

Code
library(infer)
penguins |>
  specify(response = is_adelie,
          success = "TRUE") |>
  generate(reps = 1, 
           type = "bootstrap")

. . .

Response: is_adelie (factor)
# A tibble: 344 × 2
# Groups:   replicate [1]
   replicate is_adelie
       <int> <fct>    
 1         1 FALSE    
 2         1 FALSE    
 3         1 TRUE     
 4         1 FALSE    
 5         1 TRUE     
 6         1 TRUE     
 7         1 FALSE    
 8         1 TRUE     
 9         1 TRUE     
10         1 TRUE     
# ℹ 334 more rows

Two more bootstrap samples

Code
penguins |>
  specify(response = is_adelie,
          success = "TRUE") |>
  generate(reps = 1, 
           type = "bootstrap")

Response: is_adelie (factor)
# A tibble: 344 × 2
# Groups:   replicate [1]
   replicate is_adelie
       <int> <fct>    
 1         1 FALSE    
 2         1 TRUE     
 3         1 FALSE    
 4         1 FALSE    
 5         1 FALSE    
 6         1 TRUE     
 7         1 TRUE     
 8         1 FALSE    
 9         1 FALSE    
10         1 FALSE    
# ℹ 334 more rows

Code
penguins |>
  specify(response = is_adelie,
          success = "TRUE") |>
  generate(reps = 1, 
           type = "bootstrap")

Response: is_adelie (factor)
# A tibble: 344 × 2
# Groups:   replicate [1]
   replicate is_adelie
       <int> <fct>    
 1         1 FALSE    
 2         1 TRUE     
 3         1 TRUE     
 4         1 FALSE    
 5         1 FALSE    
 6         1 TRUE     
 7         1 TRUE     
 8         1 FALSE    
 9         1 FALSE    
10         1 FALSE    
# ℹ 334 more rows
…
