Stat 20 - Summarizing Numerical Data
…
What we can glean from this figure is that the distribution of body masses across all species of penguin is skewed right. This means that, for instance, a more typical observation lies closer to 4000 grams than 5000 grams.

If we take an average, it is likely to be pulled to the right by the larger, but less typical, observations. The median observation, however, would be more resistant to this pull. Therefore, the median might be a nice choice for a measure of center. Similarly, since the IQR is initially constructed from the median, it will serve well here as a measure of spread.

Now, let’s calculate these values. We should first isolate our variable of interest. We can do this in code by using the dplyr function select().

body_mass <- select(penguins, body_mass_g)
body_mass

# A tibble: 333 × 1
   body_mass_g
         <int>
 1        3750
 2        3800
 3        3250
 4        3450
 5        3650
 6        3625
 7        4675
 8        3200
 9        3800
10        4400
# ℹ 323 more rows
…
