Stat 20 - Bootstrapping
…
For a comprehensive list of templates that you can use to form intervals, see the online documentation: https://infer.netlify.app/articles/observed_stat_examples.html.

specify()

The specify function allows you to specify which column of a data frame you are using as your response variable (your variable of interest). When looking at the relationship between two variables you will specify both the response and the explanatory variables. As such, the main arguments are response and explanatory.

penguins |>
  specify(response = bill_length_mm)

Response: bill_length_mm (numeric)
# A tibble: 342 × 1
   bill_length_mm
            <dbl>
 1           39.1
 2           39.5
 3           40.3
 4           36.7
 5           39.3
 6           38.9
 7           39.2
 8           34.1
 9           42  
10           37.8
# ℹ 332 more rows
…
The generate function generates many replicate data frames using simulation, the bootstrap procedure, or shuffling. Note that it must follow specify() so that it knows which column(s) to use.

Useful functions include:

reps: the number of data set replicates to generate. Generally set this to 500 when making confidence intervals.

type: the mechanism used to generate new data. Either "bootstrap", "draw", or "permute".

penguins |>
  specify(response = bill_length_mm) |>
  generate(reps = 2, type = "bootstrap")

Response: bill_length_mm (numeric)
# A tibble: 684 × 2
# Groups:   replicate [2]
   replicate bill_length_mm
       <int>          <dbl>
 1         1           51.3
 2         1           41.1
 3         1           46.2
 4         1           48.6
 5         1           43.2
 6         1           47.5
 7         1           38.1
 8         1           44  
 9         1           42.4
10         1           35.9
# ℹ 674 more rows
…
