Stat 20 - Hypothesis Testing
…
So when was Gilbert working? She began working in this part of the hospital in March 1990 and stopped working in February 1996. Her shifts throughout that time span? The evening shifts. The one exception was 1990, when she was assigned to work the night shift.

This evidence is compelling in establishing an association between Gilbert and the increase in deaths. When the district attorney brought a case against Gilbert in court, this was the first line of evidence they provided. In a trial, however, there is a high burden of proof.

Could there be an alternative explanation for the trend found in this data?

The role of random chance

Suppose for a moment that the occurrence of deaths at the hospital had nothing to do with Gilbert being on shift. In that case we would expect that the proportion of shifts with a death would be fairly similar when comparing shifts where Gilbert was working and shifts where she was not. But we wouldn’t expect those proportions to be exactly equal. It’s reasonable to think that a slightly higher proportion of Gilbert’s shifts could have had a death just due to random chance, not due to anything malicious on her part.

So just how different were these proportions in the data? The plot above shows data from 1,641 individual shifts, on which three different variables were recorded: the shift number, whether or not there was a death on the shift, and whether or not Gilbert was working that shift.

Here are the first 10 observations.

# A tibble: 1,641 × 3
   shift death staff     
   <dbl> <chr> <chr>     
 1   626 no    no_gilbert
 2   590 no    no_gilbert
 3  1209 no    no_gilbert
 4  1122 no    no_gilbert
 5   622 no    no_gilbert
 6  1536 no    no_gilbert
 7  1472 no    no_gilbert
 8   214 no    gilbert   
 9   277 yes   no_gilbert
10  1332 no    no_gilbert
# ℹ 1,631 more rows
…
The following example implements a permutation test under the null hypothesis that there is no relationship between the body mass of penguins and their

library(tidyverse)
library(stat20data)
library(infer)

penguins |>
  specify(response = body_mass_g,
          explanatory = sex) |>
  hypothesize(null = "independence")

Response: body_mass_g (numeric)
Explanatory: sex (factor)
Null Hypothesis: independence
# A tibble: 333 × 2
   body_mass_g sex   
         <dbl> <fct> 
 1        3750 male  
 2        3800 female
 3        3250 female
 4        3450 female
 5        3650 male  
 6        3625 female
 7        4675 male  
 8        3200 female
 9        3800 male  
10        4400 male  
# ℹ 323 more rows
…
To generate a null distribution of the kind of differences in means that you’d observe in a world where body mass had nothing to do with sex, just add the hypothesis with hypothesize() and the generation mechanism with generate().

null <- penguins |>
  specify(response = body_mass_g,
          explanatory = sex) |>
  hypothesize(null = "independence") |>
  generate(reps = 500, type = "permute") |>
  calculate(stat = "diff in means")

null

Response: body_mass_g (numeric)
Explanatory: sex (factor)
Null Hypothesis: independence
# A tibble: 500 × 2
   replicate    stat
       <int>   <dbl>
 1         1  -59.9 
 2         2 -125.  
 3         3   68.9 
 4         4   37.1 
 5         5  129.  
 6         6   36.5 
 7         7   -7.08
 8         8   60.8 
 9         9  -16.7 
10        10  -63.8 
# ℹ 490 more rows
…
