Stat 20 - Evaluating and Improving Predictions
…
To fit the least squares linear regression model to predict graduation rate using the poverty rate, we turn to the familiar lm() function.

m1 <- lm(Graduates ~ Poverty, data = poverty)

For this particular model, \(R^2 = .56\). This means that poverty rate is able to explain about 56% of the variability found in graduation rates. That’s a good start!

Improving predictions

\(R^2\) allows us to quantify how well the model explains the structure found in the data set. From a model-building standpoint, it gives us a goal: to find a model with the highest possible \(R^2\). Here we outline three different methods for pursuing this goal - adding predictors, transformations, and polynomials - and we’d look at a different data set for each one.

Adding Predictors

Let’s return to the data set that that we studying when we first learned about multiple linear regression: ratings of Italian restaurants from the ZAGAT guide. For each of the 168 restaurants in the data set, we have observations on the average price of a meal, the food quality, the quality of the decor, the quality of the service, and whether it is east or west of Fifth Avenue.

# A tibble: 168 × 6
   restaurant          price  food decor service geo  
   <chr>               <dbl> <dbl> <dbl>   <dbl> <chr>
 1 Daniella Ristorante    43    22    18      20 west 
 2 Tello's Ristorante     32    20    19      19 west 
 3 Biricchino             34    21    13      18 west 
 4 Bottino                41    20    20      17 west 
 5 Da Umberto             54    24    19      21 west 
 6 Le Madri               52    22    22      21 west 
 7 Le Zie                 34    22    16      21 west 
 8 Pasticcio              34    20    18      21 east 
 9 Belluno                39    22    19      22 east 
10 Cinque Terre           44    21    17      19 east 
# ℹ 158 more rows
…
