Stat 20 - A Grammar of Graphics
…
The above plot is an example new type of plot which involves at least two numerical variables: a scatter plot. The points may also be colored by a third variable, generally a categorical one.

Data

What variables are needed to construct the penguin plot above?

We see bill_length_mm and bill_depth_mm; those are labeled clearly on the x and y axes. We must also know the species of each of these penguins in order to know which color to label each point. In other words, there are three columns of a data frame that we need to have on hand.

penguins |>
  select(bill_length_mm,
       bill_depth_mm, 
       species)

# A tibble: 333 × 3
   bill_length_mm bill_depth_mm species
            <dbl>         <dbl> <fct>  
 1           39.1          18.7 Adelie 
 2           39.5          17.4 Adelie 
 3           40.3          18   Adelie 
 4           36.7          19.3 Adelie 
 5           39.3          20.6 Adelie 
 6           38.9          17.8 Adelie 
 7           39.2          19.6 Adelie 
 8           41.1          17.6 Adelie 
 9           38.6          21.2 Adelie 
10           34.6          21.1 Adelie 
# ℹ 323 more rows
…
