Stat 20 - Data Pipelines
…
Here’s another, less poetic way to think about the pipe, as described by the above image! Most claims about data start with a raw data set, undergo many subsetting, aggregating, and cleaning operations, then return a data product. Each one of these operations can be represented by one of the turns through the pipe. It’s good practice to understand the output of each line of code by breaking the pipe. With regards to our previous example, we can remove the summarise() and just look at the output of the group_by() step.

penguins |>
  group_by(species)

# A tibble: 333 × 8
# Groups:   species [3]
   species island    bill_length_mm bill_depth_mm flipper_length_mm body_mass_g
   <fct>   <fct>              <dbl>         <dbl>             <int>       <int>
 1 Adelie  Torgersen           39.1          18.7               181        3750
 2 Adelie  Torgersen           39.5          17.4               186        3800
 3 Adelie  Torgersen           40.3          18                 195        3250
 4 Adelie  Torgersen           36.7          19.3               193        3450
 5 Adelie  Torgersen           39.3          20.6               190        3650
 6 Adelie  Torgersen           38.9          17.8               181        3625
 7 Adelie  Torgersen           39.2          19.6               195        4675
 8 Adelie  Torgersen           41.1          17.6               182        3200
 9 Adelie  Torgersen           38.6          21.2               191        3800
10 Adelie  Torgersen           34.6          21.1               198        4400
# ℹ 323 more rows
# ℹ 2 more variables: sex <fct>, year <int>
…
In addition to providing greater insight on each step in your data pipeline, breaking the pipe is a fantastic way to troubleshoot any errors in your pipeline. If you run just the first piece of your pipeline and it works, add the second piece and try again. Continue this process with the rest of the pieces until the error occurs. When you run into the error, the piece you just added is the guilty party.

The pipe in action

We will now look at a few examples to understand the power of such a simple piece of syntax. In doing so, we will introduce a few more dplyr functions that will expand your ability to perform more specific pieces of data analysis.

Our data set of choice begins with a very general focus. In 2007, Savage and West published A qualitative, theoretical framework for understanding mammalian sleep1, wherein they “develop a general, quantitative theory for mammalian sleep that relates many of its fundamental parameters to metabolic rate and body size”. Characterizing the sleep patterns of all mammals is a broad task and their data set is corresponding diverse. Take a look at the first ten rows of their data below.

# A tibble: 83 × 5
   name                       sleep_total log_bodywt vore  conservation
   <chr>                            <dbl>      <dbl> <chr> <chr>       
 1 Cheetah                           12.1      10.8  carni lc          
 2 Owl monkey                        17         6.17 omni  <NA>        
 3 Mountain beaver                   14.4       7.21 herbi nt          
 4 Greater short-tailed shrew        14.9       2.94 omni  lc          
 5 Cow                                4        13.3  herbi domesticated
 6 Three-toed sloth                  14.4       8.26 herbi <NA>        
 7 Northern fur seal                  8.7       9.93 carni vu          
 8 Vesper mouse                       7         3.81 <NA>  <NA>        
 9 Dog                               10.1       9.55 carni domesticated
10 Roe deer                           3         9.60 herbi lc          
# ℹ 73 more rows
…
Example 1: Mutation

Oftentimes the variables we are most interested in analyzing in a data set don’t exist in the form most conducive for doing so. Other times, they don’t exist at all. For example, note how in our first output of the msleep data and the scatter plot that body weight is being presented in log grams (log_bodywt). In reality, the body weight as originally present in the msleep dataset is called bodywt and is recorded in kilograms! To get to log_bodywt, we will perform what is called a mutation.

Mutation

The act of creating a new column in a dataset based on information in existing column(s).

There are a variety of different mutations that you can apply to a column(s) in a dataset. In the last lecture, we overwrote an existing column with an updated version of itself. Today, we will perform a mathematical mutation on the bodywt column.

msleep |>
    mutate(log_bodywt = log(bodywt * 1000)) |>
    select(log_bodywt, bodywt)

# A tibble: 83 × 2
   log_bodywt  bodywt
        <dbl>   <dbl>
 1      10.8   50    
 2       6.17   0.48 
 3       7.21   1.35 
 4       2.94   0.019
 5      13.3  600    
 6       8.26   3.85 
 7       9.93  20.5  
 8       3.81   0.045
 9       9.55  14    
10       9.60  14.8  
# ℹ 73 more rows

Here, the first argument, msleep, is piped to the dplyr function mutate() and the second argument, log_bodywt, creates a new column named log_bodywt by multiplying the bodywt column by 100 (converting kilograms to grams) and then taking the natural log. We then pipe this output into select() to compare the two columns.

You can use mutate() to create multiple columns at the same time:

msleep |>
    mutate(log_bodywt = log(bodywt * 1000),
           sleep_total_min = sleep_total*60) |>
    select(log_bodywt, bodywt,
           sleep_total, sleep_total_min)

# A tibble: 83 × 4
   log_bodywt  bodywt sleep_total sleep_total_min
        <dbl>   <dbl>       <dbl>           <dbl>
 1      10.8   50            12.1             726
 2       6.17   0.48         17              1020
 3       7.21   1.35         14.4             864
 4       2.94   0.019        14.9             894
 5      13.3  600             4               240
 6       8.26   3.85         14.4             864
 7       9.93  20.5           8.7             522
 8       3.81   0.045         7               420
 9       9.55  14            10.1             606
10       9.60  14.8           3               180
# ℹ 73 more rows
…
In this version, the sleep_total > 8 vector is made into a new column using mutate() called long_sleep. This is a column of TRUEs and FALSEs, and we can then take its mean directly in the summarise() step.

Example 4: Arranging

Sometimes, we are interested in arranging the rows of a data frame according to some logical ordering of a column. This ordering is straightforward for numeric columns; the smallest numbers should be placed first and ascend to the larger ones (or vice versa). We might also think about what happens when passing in a column of characters. Luckily, the dplyr package has a catch-all solution to this in the form of the arrange() function.

Let’s take a look:

msleep |>
  arrange(sleep_total) |>
  select(name, sleep_total)

# A tibble: 83 × 2
   name             sleep_total
   <chr>                  <dbl>
 1 Giraffe                  1.9
 2 Pilot whale              2.7
 3 Horse                    2.9
 4 Roe deer                 3  
 5 Donkey                   3.1
 6 African elephant         3.3
 7 Caspian seal             3.5
 8 Sheep                    3.8
 9 Asian elephant           3.9
10 Cow                      4  
# ℹ 73 more rows

From this output, we can see that the giraffe sleeps for the smallest amount of time per day (not even two hours)! But maybe we are interested in which mammal sleeps the longest. If this is the case, we can modify the arrange() function slightly by wrapping our column of interest within desc().

msleep |>
  arrange(desc(sleep_total)) |>
  select(name, sleep_total)

# A tibble: 83 × 2
   name                           sleep_total
   <chr>                                <dbl>
 1 Little brown bat                      19.9
 2 Big brown bat                         19.7
 3 Thick-tailed opposum                  19.4
 4 Giant armadillo                       18.1
 5 North American Opossum                18  
 6 Long-nosed armadillo                  17.4
 7 Owl monkey                            17  
 8 Arctic ground squirrel                16.6
 9 Golden-mantled ground squirrel        15.9
10 Tiger                                 15.8
# ℹ 73 more rows

What if you pass a column of characters to arrange()?

msleep |>
  arrange(vore) |>
  select(name, vore, sleep_total)

# A tibble: 83 × 3
   name                       vore  sleep_total
   <chr>                      <chr>       <dbl>
 1 Cheetah                    carni        12.1
 2 Northern fur seal          carni         8.7
 3 Dog                        carni        10.1
 4 Long-nosed armadillo       carni        17.4
 5 Domestic cat               carni        12.5
 6 Pilot whale                carni         2.7
 7 Gray seal                  carni         6.2
 8 Thick-tailed opposum       carni        19.4
 9 Slow loris                 carni        11  
10 Northern grasshopper mouse carni        14.5
# ℹ 73 more rows

When arranged by vore, carni comes first, and the rest of the diet groups will follow in alphabetical order. The mammals aren’t arranged in any specific order within a diet group, but we can change that by passing another column to arrange(). Passing additional columns to arrange() will systematically break ties. The below code arranges the data frame first by diet group (from A to Z) and then breaks ties by (ascending) sleep time:

msleep |>
  arrange(vore, sleep_total) |>
  select(name, vore, sleep_total)

# A tibble: 83 × 3
   name                 vore  sleep_total
   <chr>                <chr>       <dbl>
 1 Pilot whale          carni         2.7
 2 Caspian seal         carni         3.5
 3 Bottle-nosed dolphin carni         5.2
 4 Common porpoise      carni         5.6
 5 Gray seal            carni         6.2
 6 Genet                carni         6.3
 7 Northern fur seal    carni         8.7
 8 Red fox              carni         9.8
 9 Dog                  carni        10.1
10 Jaguar               carni        10.4
# ℹ 73 more rows
…
Some notes rely heavily on code to augment your learning and understanding of the main concepts. This “Ideas in Code” section is meant to expand more on concepts and functions that the notes utilize but may not fully explain.

This specific set of notes contains references to many functions from the tidyverse library such as mutate(), select() filter(), arrange(), ggplot(), group_by(), summarize(). We delve more into some of these functions here.

mutate()

This function allows you to create a new column in a dataframe. In typical tidyverse fashion, the first argument is a dataframe. The second argument names and defines how that new column is created. Above, we saw:

arbuthnot %>%
    mutate(total = boys + girls) %>%
    arrange(desc(total)) %>%
    select(year, total)

# A tibble: 82 × 2
    year total
   <int> <int>
 1  1705 16145
 2  1707 16066
 3  1698 16052
 4  1708 15862
 5  1697 15829
 6  1702 15687
 7  1701 15616
 8  1703 15448
 9  1706 15369
10  1699 15363
# ℹ 72 more rows

Here, the first argument, arbuthnot, is piped to mutate() and the second argument, total = boys + girls, creates a new column named total by adding together the columns boys and girls. You can use mutate() to create multiple columns at the same time:

arbuthnot %>%
    mutate(total = boys + girls,
           girl_proportion = girls / total) %>%
    arrange(desc(total)) %>%
    select(year, total, girl_proportion)

# A tibble: 82 × 3
    year total girl_proportion
   <int> <int>           <dbl>
 1  1705 16145           0.482
 2  1707 16066           0.478
 3  1698 16052           0.475
 4  1708 15862           0.481
 5  1697 15829           0.491
 6  1702 15687           0.488
 7  1701 15616           0.481
 8  1703 15448           0.497
 9  1706 15369           0.483
10  1699 15363           0.485
# ℹ 72 more rows

Note that switching the order of the two new columns created above such that girl_proportion = girls / total comes before total = boys + girls will produce an error because total is used before it is created.

select()

This function is defined above as “selecting a subset of the columns of a data frame.” You’ve seen how to use select() to select or “grab” certain columns, but you can also use select() to omit certain columns. The last block of code can be rewritten to produce the same output by placing a minus sign, -, in front of the columns to omit:

arbuthnot %>%
    mutate(total = boys + girls,
           girl_proportion = girls / total) %>%
    arrange(desc(total)) %>%
    select(-c(boys, girls))

# A tibble: 82 × 3
    year total girl_proportion
   <int> <int>           <dbl>
 1  1705 16145           0.482
 2  1707 16066           0.478
 3  1698 16052           0.475
 4  1708 15862           0.481
 5  1697 15829           0.491
 6  1702 15687           0.488
 7  1701 15616           0.481
 8  1703 15448           0.497
 9  1706 15369           0.483
10  1699 15363           0.485
# ℹ 72 more rows

arrange()

This function arranges the rows of a data frame according to some logical ordering of a column. This ordering is straightforward for numeric columns; the smallest numbers are placed first and ascend to the larger ones. That is, unless you use desc() (which stands for descending).

But what if you pass a column of characters to arrange()? Let’s take a look:

penguins %>%
  arrange(species) %>%
  select(species, island, bill_length_mm)

# A tibble: 333 × 3
   species island    bill_length_mm
   <fct>   <fct>              <dbl>
 1 Adelie  Torgersen           39.1
 2 Adelie  Torgersen           39.5
 3 Adelie  Torgersen           40.3
 4 Adelie  Torgersen           36.7
 5 Adelie  Torgersen           39.3
 6 Adelie  Torgersen           38.9
 7 Adelie  Torgersen           39.2
 8 Adelie  Torgersen           41.1
 9 Adelie  Torgersen           38.6
10 Adelie  Torgersen           34.6
# ℹ 323 more rows

When arranged by species, Adelie penguins come first, followed by Chinstrap, then Gentoo. The penguins aren’t arranged in any specific order within a species, but we can change that by passing another column to arrange(). Passing additional columns to arrange() will systematically break ties. The below code arranges the data frame first by species (alphabetically) and then breaks ties by (ascending) bill length:

penguins %>%
  arrange(species, bill_length_mm) %>%
  select(species, island, bill_length_mm)

# A tibble: 333 × 3
   species island    bill_length_mm
   <fct>   <fct>              <dbl>
 1 Adelie  Dream               32.1
 2 Adelie  Dream               33.1
 3 Adelie  Torgersen           33.5
 4 Adelie  Dream               34  
 5 Adelie  Torgersen           34.4
 6 Adelie  Biscoe              34.5
 7 Adelie  Torgersen           34.6
 8 Adelie  Torgersen           34.6
 9 Adelie  Biscoe              35  
10 Adelie  Biscoe              35  
# ℹ 323 more rows
…
