Stat 20 - Data Pipelines
…
Code
class_survey |>
  select(new_COVID_variant) |>
  filter(year == "It's my first year.")

Error in `filter()`:
ℹ In argument: `year == "It's my first year."`.
Caused by error in `year == "It's my first year."`:
! comparison (==) is possible only for atomic and list types

Code
class_survey |>
  select(new_COVID_variant)

# A tibble: 619 × 1
   new_COVID_variant
               <dbl>
 1           0.25   
 2           0.1    
 3           0      
 4           0.2    
 5           0.9    
 6           0.2    
 7           0.4    
 8           0.00005
 9           0.2    
10           0.3    
# ℹ 609 more rows
…
